<?xml version="1.0" encoding="UTF-8" standalone="no"?>
<svg
   xmlns:dc="http://purl.org/dc/elements/1.1/"
   xmlns:cc="http://creativecommons.org/ns#"
   xmlns:rdf="http://www.w3.org/1999/02/22-rdf-syntax-ns#"
   xmlns:svg="http://www.w3.org/2000/svg"
   xmlns="http://www.w3.org/2000/svg"
   xmlns:sodipodi="http://sodipodi.sourceforge.net/DTD/sodipodi-0.dtd"
   xmlns:inkscape="http://www.inkscape.org/namespaces/inkscape"
   class="bi bi-exclamation-circle-fill"
   width="1em"
   height="1em"
   viewBox="0 0 16 16"
   fill="#FF0000"
   version="1.1"
   id="svg4"
   sodipodi:docname="info.svg"
   inkscape:version="0.92.5 (2060ec1f9f, 2020-04-08)">
  <metadata
     id="metadata10">
    <rdf:RDF>
      <cc:Work
         rdf:about="">
        <dc:format>image/svg+xml</dc:format>
        <dc:type
           rdf:resource="http://purl.org/dc/dcmitype/StillImage" />
      </cc:Work>
    </rdf:RDF>
  </metadata>
  <defs
     id="defs8" />
  <sodipodi:namedview
     pagecolor="#ffffff"
     bordercolor="#666666"
     borderopacity="1"
     objecttolerance="10"
     gridtolerance="10"
     guidetolerance="10"
     inkscape:pageopacity="0"
     inkscape:pageshadow="2"
     inkscape:window-width="1920"
     inkscape:window-height="1017"
     id="namedview6"
     showgrid="false"
     inkscape:zoom="32"
     inkscape:cx="4.057193"
     inkscape:cy="6.610514"
     inkscape:window-x="-8"
     inkscape:window-y="-8"
     inkscape:window-maximized="1"
     inkscape:current-layer="svg4" />
  <circle
     style="fill:#808080;fill-opacity:1;stroke:none;stroke-width:10.20555019;stroke-miterlimit:4;stroke-dasharray:none;stroke-dashoffset:0;stroke-opacity:1;paint-order:stroke markers fill"
     id="path841"
     cx="8.0169487"
     cy="7.9999995"
     r="6.500001" />
  <text
     xml:space="preserve"
     style="font-style:normal;font-weight:normal;font-size:32.5px;line-height:1.25;font-family:sans-serif;letter-spacing:0px;word-spacing:0px;fill:#000000;fill-opacity:1;stroke:none;stroke-width:0.8125"
     x="6.6458583"
     y="8.0000238"
     id="text849"><tspan
       sodipodi:role="line"
       id="tspan847"
       x="6.6458583"
       y="37.650761"
       style="stroke-width:0.8125" /></text>
  <rect
     style="fill:#ffffff;fill-opacity:1;stroke:none;stroke-width:7.34643221;stroke-miterlimit:4;stroke-dasharray:none;stroke-dashoffset:0;stroke-opacity:1;paint-order:stroke markers fill"
     id="rect851"
     width="1.7758363"
     height="5.6516695"
     x="7.1206255"
     y="6.5868745"
     ry="0.50824374" />
  <circle
     style="fill:#ffffff;fill-opacity:1;stroke:none;stroke-width:6.83216381;stroke-miterlimit:4;stroke-dasharray:none;stroke-dashoffset:0;stroke-opacity:1;paint-order:stroke markers fill"
     id="path853"
     cx="8.0049677"
     cy="4.5245028"
     r="0.88634551" />
</svg>
